Tidy Hurricanes - 3 Data Set storms
…
https://en.wikipedia.org/wiki/HURDAT

3.1.1 Data storms

The package "dplyr" contains a dataset called storms which is a subset of the NOAA Atlantic hurricane database best track data. This database is one of several data sets available in the National Hurricane Center (NHC) Data Archive, which is part of the National Oceanic and Atmospheric Administration (NOAA). In case you are curious about the specifications and format of this type of data, you can visit the following link:

http://www.nhc.noaa.gov/data/#hurdat

The data storms includes the positions and attributes of tropical systems in the North Atlantic. If you are using a version of "dplyr" greater than or equal to 1.0.10, the storms are from the period 1975 to 2020, measured every six hours during the lifetime of a storm.

Assuming that you’ve loaded "tidyverse" (or "dplyr") in R, when you type the name of the data object, you would get something like this:

storms

# A tibble: 19,066 × 13
   name   year month   day  hour   lat  long status      category  wind pressure
   <chr> <dbl> <dbl> <int> <dbl> <dbl> <dbl> <fct>          <dbl> <int>    <int>
 1 Amy    1975     6    27     0  27.5 -79   tropical d…       NA    25     1013
 2 Amy    1975     6    27     6  28.5 -79   tropical d…       NA    25     1013
 3 Amy    1975     6    27    12  29.5 -79   tropical d…       NA    25     1013
 4 Amy    1975     6    27    18  30.5 -79   tropical d…       NA    25     1013
 5 Amy    1975     6    28     0  31.5 -78.8 tropical d…       NA    25     1012
 6 Amy    1975     6    28     6  32.4 -78.7 tropical d…       NA    25     1012
 7 Amy    1975     6    28    12  33.3 -78   tropical d…       NA    25     1011
 8 Amy    1975     6    28    18  34   -77   tropical d…       NA    30     1006
 9 Amy    1975     6    29     0  34.4 -75.8 tropical s…       NA    35     1004
10 Amy    1975     6    29     6  34   -74.8 tropical s…       NA    40     1002
# ℹ 19,056 more rows
# ℹ 2 more variables: tropicalstorm_force_diameter <int>,
#   hurricane_force_diameter <int>
…
