Tidy Hurricanes - 7 Inspecting Single Columns
…
7  Inspecting Single Columns

As we just saw, because storms is an object of class "tibble", when you type its name R displays the first 10 rows, which belong to storm Amy in 1975:

storms

# A tibble: 19,066 × 13
   name   year month   day  hour   lat  long status      category  wind pressure
   <chr> <dbl> <dbl> <int> <dbl> <dbl> <dbl> <fct>          <dbl> <int>    <int>
 1 Amy    1975     6    27     0  27.5 -79   tropical d…       NA    25     1013
 2 Amy    1975     6    27     6  28.5 -79   tropical d…       NA    25     1013
 3 Amy    1975     6    27    12  29.5 -79   tropical d…       NA    25     1013
 4 Amy    1975     6    27    18  30.5 -79   tropical d…       NA    25     1013
 5 Amy    1975     6    28     0  31.5 -78.8 tropical d…       NA    25     1012
 6 Amy    1975     6    28     6  32.4 -78.7 tropical d…       NA    25     1012
 7 Amy    1975     6    28    12  33.3 -78   tropical d…       NA    25     1011
 8 Amy    1975     6    28    18  34   -77   tropical d…       NA    30     1006
 9 Amy    1975     6    29     0  34.4 -75.8 tropical s…       NA    35     1004
10 Amy    1975     6    29     6  34   -74.8 tropical s…       NA    40     1002
# ℹ 19,056 more rows
# ℹ 2 more variables: tropicalstorm_force_diameter <int>,
#   hurricane_force_diameter <int>
…
unique(pull(storms, year))

 [1] 1975 1976 1977 1978 1979 1980 1981 1982 1983 1984 1985 1986 1987 1988 1989
[16] 1990 1991 1992 1993 1994 1995 1996 1997 1998 1999 2000 2001 2002 2003 2004
[31] 2005 2006 2007 2008 2009 2010 2011 2012 2013 2014 2015 2016 2017 2018 2019
[46] 2020 2021

Based on this output, we can see that storms has records during a 47-year period since 1975 to 2021.

The same can be accomplished with unique() and select().

unique(select(storms, year))

# A tibble: 47 × 1
    year
   <dbl>
 1  1975
 2  1976
 3  1977
 4  1978
 5  1979
 6  1980
 7  1981
 8  1982
 9  1983
10  1984
# ℹ 37 more rows

Can you notice the difference between pull() and select()? The difference is minor but important. Conceptually speaking, both functions return the same values. However, the format of their output is not the same. Observe that select() returns output in a tibble format. In contrast, the output of pull() is not in a tabular format but rather in a vector (i.e. contiguous set of values).

Interestingly, there is a third option that can be used to find the unique or distinct year values: using the function distinct()

distinct(storms, year)

# A tibble: 47 × 1
    year
   <dbl>
 1  1975
 2  1976
 3  1977
 4  1978
 5  1979
 6  1980
 7  1981
 8  1982
 9  1983
10  1984
# ℹ 37 more rows
…
