Tidy Hurricanes - 11 Summary
…
We discovered that the 47-year period of recorded data from 1975 to 2021. We can take a further step and ask: how many storms are there in each year?

To answer this question, we need to do some data manipulation with "dplyr". Our general recommendation when working with "dplyr"’s functions, especially when you are learning about them, is to do computations step by step, deciding which columns you need to use, which rows to consider, which functions to call, and so on.

Think about the columns that we need to select to find the number of unique storms per year. We obviously need year, but this column alone it’s not enough because for any given storm we have multiple records with the same year. Therefore, we also need column name.

For illustration purposes, we are going to build the data manipulation pipeline step by step. As you get more comfortable with "dplyr" and other functions, you won’t have the need to dissect every single command.

A first step is to select() variables year and name:

select(storms, year, name)

# A tibble: 19,066 × 2
    year name 
   <dbl> <chr>
 1  1975 Amy  
 2  1975 Amy  
 3  1975 Amy  
 4  1975 Amy  
 5  1975 Amy  
 6  1975 Amy  
 7  1975 Amy  
 8  1975 Amy  
 9  1975 Amy  
10  1975 Amy  
# ℹ 19,056 more rows

Next, we need to group_by() year. At first glance, the previous output and the output below seem identical. But notice the tiny difference: the output below has a second line of text with some relevant information telling us that the values are grouped by year.

group_by(select(storms, year, name), year)

# A tibble: 19,066 × 2
# Groups:   year [47]
    year name 
   <dbl> <chr>
 1  1975 Amy  
 2  1975 Amy  
 3  1975 Amy  
 4  1975 Amy  
 5  1975 Amy  
 6  1975 Amy  
 7  1975 Amy  
 8  1975 Amy  
 9  1975 Amy  
10  1975 Amy  
# ℹ 19,056 more rows

Then, we identify the distinct() values (combination of year-name):

distinct(group_by(select(storms, year, name), year))

# A tibble: 639 × 2
# Groups:   year [47]
    year name    
   <dbl> <chr>   
 1  1975 Amy     
 2  1975 Blanche 
 3  1975 Caroline
 4  1975 Doris   
 5  1975 Eloise  
 6  1975 Faye    
 7  1975 Gladys  
 8  1975 Hallie  
 9  1976 Belle   
10  1976 Dottie  
# ℹ 629 more rows

For convenience purposes, let’s assign this table into its own object, which we can call storms_year_name

storms_year_name <- distinct(group_by(select(storms, year, name), year))

Finally, we need to count() how many storms are in each year:

count(storms_year_name, year)

# A tibble: 47 × 2
# Groups:   year [47]
    year     n
   <dbl> <int>
 1  1975     8
 2  1976     7
 3  1977     6
 4  1978    11
 5  1979     8
 6  1980    11
 7  1981    11
 8  1982     5
 9  1983     4
10  1984    12
# ℹ 37 more rows

All the previous commands can be assembled together with various embedded lines of code:

storms_per_year <- storms |>
  select(year, name) |>
  group_by(year) |>
  distinct() |>
  count()

storms_per_year

# A tibble: 47 × 2
# Groups:   year [47]
    year     n
   <dbl> <int>
 1  1975     8
 2  1976     7
 3  1977     6
 4  1978    11
 5  1979     8
 6  1980    11
 7  1981    11
 8  1982     5
 9  1983     4
10  1984    12
# ℹ 37 more rows
…
By looking at the chart, there are some fairly tall bars. Although it’s hard to see exactly which years have a considerably large number of storms, eyeballing things out it seems that around 1995, 2003, 2005, and 2010 there are 20 or more storms. We can find the actual answer by using arrange(), specifying the counts to be shown in descending order—with desc():

arrange(storms_per_year, desc(n))

# A tibble: 47 × 2
# Groups:   year [47]
    year     n
   <dbl> <int>
 1  2020    30
 2  2005    29
 3  1995    21
 4  2003    21
 5  2010    21
 6  2011    20
 7  2021    20
 8  2012    19
 9  2000    18
10  2017    18
# ℹ 37 more rows
…
