Tidy Hurricanes - 13 Visualizing Number of Systems
…
13  Visualizing Number of Systems

We ended the preceding chapter with the following command that allows us to get the number of tropical systems in each year from 1975 to 2020:

system_counts_per_year <- storms %>% 
  count(year, name) %>% 
  count(year)

system_counts_per_year

# A tibble: 47 × 2
    year     n
   <dbl> <int>
 1  1975     8
 2  1976     7
 3  1977     6
 4  1978    11
 5  1979     8
 6  1980    11
 7  1981    11
 8  1982     5
 9  1983     4
10  1984    12
# ℹ 37 more rows
…
Looking at the chart, there are some fairly tall bars. Although it’s hard to see exactly which years have a considerably large number of tropical systems, eyeballing things out it seems that around 1995, 2005, and 2020 there are 20 or more storms. We can find the actual answer by using arrange(), specifying the counts to be shown in descending order—with desc():

arrange(system_counts_per_year, desc(n))

# A tibble: 47 × 2
    year     n
   <dbl> <int>
 1  2020    30
 2  2005    29
 3  1995    21
 4  2003    21
 5  2010    21
 6  2011    20
 7  2021    20
 8  2012    19
 9  2000    18
10  2017    18
# ℹ 37 more rows
…
