Tidy Hurricanes - 14 Counting More Systems
…
To be more precise: in addition to wind_max, let’s also include the maximum category value when identifying the set of tropical storms. If everything is correct, all the entries should have category value of 0 which is the numeric code for tropical storms.

# identifying tropical storms
trop_storms = storms |>
  filter(wind >= 34) |>
  group_by(year, name) |>
  summarise(wind_max = max(wind)) |>
  filter(wind_max < 64)

`summarise()` has grouped output by 'year'. You can override using the
`.groups` argument.

slice_head(trop_storms, n = 10)

# A tibble: 264 × 3
# Groups:   year [47]
    year name   wind_max
   <dbl> <chr>     <int>
 1  1975 Amy          60
 2  1975 Hallie       45
 3  1976 Dottie       45
 4  1977 Frieda       50
 5  1978 Amelia       45
 6  1978 Bess         45
 7  1978 Debra        50
 8  1978 Hope         55
 9  1978 Irma         45
10  1978 Juliet       45
# ℹ 254 more rows
…
