12 Counting Tropical Systems | Tidy Hurricanes
…
Okay. This count is not what we are looking for. But before trying other
ideas, spend some time reflecting on what the preceding command is doing.

Attempt Number 2

Perhaps we could add a group_by(year) operation before invoking count():

# second attempt
storms %>%
  select(year) %>%
  group_by(year) %>%
  count()

## # A tibble: 46 × 2
## # Groups:   year [46]
##     year     n
##    <dbl> <int>
##  1  1975    86
##  2  1976    52
##  3  1977    53
##  4  1978    54
##  5  1979   301
##  6  1980   161
##  7  1981   164
##  8  1982   105
##  9  1983    79
## 10  1984   236
## # … with 36 more rows
…
You may not know this, but the previous table of counts can be obtained using a
more compact command without the need to use select() and group_by(); you
can just simply invoke count(year):

# same output of preceding command, only using count()
storms %>% count(year)

## # A tibble: 46 × 2
##     year     n
##    <dbl> <int>
##  1  1975    86
##  2  1976    52
##  3  1977    53
##  4  1978    54
##  5  1979   301
##  6  1980   161
##  7  1981   164
##  8  1982   105
##  9  1983    79
## 10  1984   236
## # … with 36 more rows

Attempt Number 3

What if instead of counting year we count based on column name? For example:

# third attempt
storms %>% count(name)

## # A tibble: 214 × 2
##    name         n
##    <chr>    <int>
##  1 AL011993     8
##  2 AL012000     4
##  3 AL021992     5
##  4 AL021994     6
##  5 AL021999     4
##  6 AL022000    12
##  7 AL022001     5
##  8 AL022003     4
##  9 AL022006     5
## 10 AL031987    32
## # … with 204 more rows
…
Attempt Number 4

So far we’ve tried—unsuccessfully—counting based on column year alone,
and also on column name alone. None of these columns, in and of itself, is
enough because for any given storm or any given year we have multiple entries
with duplicated values.

Again, the following suggestion may not seem obvious, but you can also try
counting by taking into account both year and name

# fourth attempt
storms %>% count(year, name)

## # A tibble: 512 × 3
##     year name         n
##    <dbl> <chr>    <int>
##  1  1975 Amy         30
##  2  1975 Caroline    33
##  3  1975 Doris       23
##  4  1976 Belle       18
##  5  1976 Gloria      34
##  6  1977 Anita       20
##  7  1977 Clara       24
##  8  1977 Evelyn       9
##  9  1978 Amelia       6
## 10  1978 Bess        13
## # … with 502 more rows
Compared to the previous attempts, this output looks more promising. Finally,
we can see that there were three (named) storms in 1975, two in 1976, three
more in 1977, etc. However, we still don’t have those specific counts: 3, 2, 3,
etc. But at least we are making some progress in what it seems to be the right
direction.

Attempt Number 5

Why not taking the preceding command, and adding an extra count() but only
considering year?

# fifth attempt
storms %>% count(year, name) %>% count(year)

## # A tibble: 46 × 2
##     year     n
##    <dbl> <int>
##  1  1975     3
##  2  1976     2
##  3  1977     3
##  4  1978     4
##  5  1979     7
##  6  1980     8
##  7  1981     5
##  8  1982     5
##  9  1983     4
## 10  1984    10
## # … with 36 more rows

Voila! Now we are talking. This table contains precisely the counts that
we are looking for: number of systems in each year.

For convenience purposes, let’s assign this table into its own object,
which we can call system_counts_per_year, or some other meaningful name
that you might prefer to use:

system_counts_per_year <- storms %>% 
  count(year, name) %>% 
  count(year)

system_counts_per_year

## # A tibble: 46 × 2
##     year     n
##    <dbl> <int>
##  1  1975     3
##  2  1976     2
##  3  1977     3
##  4  1978     4
##  5  1979     7
##  6  1980     8
##  7  1981     5
##  8  1982     5
##  9  1983     4
## 10  1984    10
## # … with 36 more rows
…
