4 "dplyr" and "ggplot2" | Tidy Hurricanes
…
4.1.1 Filter

filter() allows you to select rows by defining a condition (which could be
simple or compound). For example, we can filter storms by selecting those
rows from year 1975

# using a single condition
storms75 <- filter(storms, year == 1975)

We can also use a compound logical condition:

amy75 <- filter(storms, year == 1975 & name == "Amy")
amy75

## # A tibble: 31 × 13
##    name   year month   day  hour   lat  long status      category  wind pressure
##    <chr> <dbl> <dbl> <int> <dbl> <dbl> <dbl> <fct>          <dbl> <int>    <int>
##  1 Amy    1975     6    27     0  27.5 -79   tropical d…       NA    25     1013
##  2 Amy    1975     6    27     6  28.5 -79   tropical d…       NA    25     1013
##  3 Amy    1975     6    27    12  29.5 -79   tropical d…       NA    25     1013
##  4 Amy    1975     6    27    18  30.5 -79   tropical d…       NA    25     1013
##  5 Amy    1975     6    28     0  31.5 -78.8 tropical d…       NA    25     1012
##  6 Amy    1975     6    28     6  32.4 -78.7 tropical d…       NA    25     1012
##  7 Amy    1975     6    28    12  33.3 -78   tropical d…       NA    25     1011
##  8 Amy    1975     6    28    18  34   -77   tropical d…       NA    30     1006
##  9 Amy    1975     6    29     0  34.4 -75.8 tropical s…       NA    35     1004
## 10 Amy    1975     6    29     6  34   -74.8 tropical s…       NA    40     1002
## # ℹ 21 more rows
## # ℹ 2 more variables: tropicalstorm_force_diameter <int>,
## #   hurricane_force_diameter <int>
…
slice_tail() to subset the last rows

slice_min() to subset rows with lowest values of a variable

slice_max() to subset rows with highest values of a variable

slice_sample() to randomly subset rows

4.1.3 Select

select() allows you to select one or more columns by name:

select(amy75, day, month, wind, pressure)

## # A tibble: 31 × 4
##      day month  wind pressure
##    <int> <dbl> <int>    <int>
##  1    27     6    25     1013
##  2    27     6    25     1013
##  3    27     6    25     1013
##  4    27     6    25     1013
##  5    28     6    25     1012
##  6    28     6    25     1012
##  7    28     6    25     1011
##  8    28     6    30     1006
##  9    29     6    35     1004
## 10    29     6    40     1002
## # ℹ 21 more rows

select() also allows you to specify a range of consecutive columns via the : operator

# consecutive columns
select(amy75, name:long)

## # A tibble: 31 × 7
##    name   year month   day  hour   lat  long
##    <chr> <dbl> <dbl> <int> <dbl> <dbl> <dbl>
##  1 Amy    1975     6    27     0  27.5 -79  
##  2 Amy    1975     6    27     6  28.5 -79  
##  3 Amy    1975     6    27    12  29.5 -79  
##  4 Amy    1975     6    27    18  30.5 -79  
##  5 Amy    1975     6    28     0  31.5 -78.8
##  6 Amy    1975     6    28     6  32.4 -78.7
##  7 Amy    1975     6    28    12  33.3 -78  
##  8 Amy    1975     6    28    18  34   -77  
##  9 Amy    1975     6    29     0  34.4 -75.8
## 10 Amy    1975     6    29     6  34   -74.8
## # ℹ 21 more rows

select() also allows you to exclude one or more columns by negating their
names:

# exclude columns by name
select(amy75, -(lat:hurricane_force_diameter))

## # A tibble: 31 × 5
##    name   year month   day  hour
##    <chr> <dbl> <dbl> <int> <dbl>
##  1 Amy    1975     6    27     0
##  2 Amy    1975     6    27     6
##  3 Amy    1975     6    27    12
##  4 Amy    1975     6    27    18
##  5 Amy    1975     6    28     0
##  6 Amy    1975     6    28     6
##  7 Amy    1975     6    28    12
##  8 Amy    1975     6    28    18
##  9 Amy    1975     6    29     0
## 10 Amy    1975     6    29     6
## # ℹ 21 more rows

Interestingly, you can also select() columns by their position

# columns by position
select(amy75, 1:5)

## # A tibble: 31 × 5
##    name   year month   day  hour
##    <chr> <dbl> <dbl> <int> <dbl>
##  1 Amy    1975     6    27     0
##  2 Amy    1975     6    27     6
##  3 Amy    1975     6    27    12
##  4 Amy    1975     6    27    18
##  5 Amy    1975     6    28     0
##  6 Amy    1975     6    28     6
##  7 Amy    1975     6    28    12
##  8 Amy    1975     6    28    18
##  9 Amy    1975     6    29     0
## 10 Amy    1975     6    29     6
## # ℹ 21 more rows

4.1.4 Mutate

Another basic verb is mutate() which allows you to: 1) transform existing
variables, but also 2) add new variables.

For illustration purposes, let’s create a subset of storm Amy by selecting
day, month, hour, and wind:

amy75_dat = select(amy75, day, month, hour, wind)
amy75_dat

## # A tibble: 31 × 4
##      day month  hour  wind
##    <int> <dbl> <dbl> <int>
##  1    27     6     0    25
##  2    27     6     6    25
##  3    27     6    12    25
##  4    27     6    18    25
##  5    28     6     0    25
##  6    28     6     6    25
##  7    28     6    12    25
##  8    28     6    18    30
##  9    29     6     0    35
## 10    29     6     6    40
## # ℹ 21 more rows

Wind speed values—column wind—are expressed in knots. But what if we are
interested in having wind speed expressed in miles per hour? Enter mutate().
Here is how to add a new column wind_mph (1 knot = 1.15078 mph)

mutate(amy75_dat, wind_mph = wind * 1.15078)

## # A tibble: 31 × 5
##      day month  hour  wind wind_mph
##    <int> <dbl> <dbl> <int>    <dbl>
##  1    27     6     0    25     28.8
##  2    27     6     6    25     28.8
##  3    27     6    12    25     28.8
##  4    27     6    18    25     28.8
##  5    28     6     0    25     28.8
##  6    28     6     6    25     28.8
##  7    28     6    12    25     28.8
##  8    28     6    18    30     34.5
##  9    29     6     0    35     40.3
## 10    29     6     6    40     46.0
## # ℹ 21 more rows
…
