5 Storms in 1975 | Tidy Hurricanes
…
Figure 5.1: Extracting certain rows with dplyr function “filter”

First, let’s create a subset storms75 by filtering those rows with year
equal to 1975:

storms75 <- filter(storms, year == 1975)
storms75

## # A tibble: 86 × 13
##    name   year month   day  hour   lat  long status        categ…¹  wind press…²
##    <chr> <dbl> <dbl> <int> <dbl> <dbl> <dbl> <chr>         <ord>   <int>   <int>
##  1 Amy    1975     6    27     0  27.5 -79   tropical dep… -1         25    1013
##  2 Amy    1975     6    27     6  28.5 -79   tropical dep… -1         25    1013
##  3 Amy    1975     6    27    12  29.5 -79   tropical dep… -1         25    1013
##  4 Amy    1975     6    27    18  30.5 -79   tropical dep… -1         25    1013
##  5 Amy    1975     6    28     0  31.5 -78.8 tropical dep… -1         25    1012
##  6 Amy    1975     6    28     6  32.4 -78.7 tropical dep… -1         25    1012
##  7 Amy    1975     6    28    12  33.3 -78   tropical dep… -1         25    1011
##  8 Amy    1975     6    28    18  34   -77   tropical dep… -1         30    1006
##  9 Amy    1975     6    29     0  34.4 -75.8 tropical sto… 0          35    1004
## 10 Amy    1975     6    29     6  34   -74.8 tropical sto… 0          40    1002
## # … with 76 more rows, 2 more variables: tropicalstorm_force_diameter <int>,
## #   hurricane_force_diameter <int>, and abbreviated variable names ¹​category,
## #   ²​pressure
…
## # A tibble: 3 × 2
##   name         n
##   <chr>    <int>
## 1 Amy         30
## 2 Caroline    33
## 3 Doris       23

5.1 Visualizing 1975 data

Let’s play a bit with those storms from 1975. More specifically, let’s visually
explore the values of columns wind and pressure.

storms75

## # A tibble: 86 × 13
##    name   year month   day  hour   lat  long status        categ…¹  wind press…²
##    <chr> <dbl> <dbl> <int> <dbl> <dbl> <dbl> <chr>         <ord>   <int>   <int>
##  1 Amy    1975     6    27     0  27.5 -79   tropical dep… -1         25    1013
##  2 Amy    1975     6    27     6  28.5 -79   tropical dep… -1         25    1013
##  3 Amy    1975     6    27    12  29.5 -79   tropical dep… -1         25    1013
##  4 Amy    1975     6    27    18  30.5 -79   tropical dep… -1         25    1013
##  5 Amy    1975     6    28     0  31.5 -78.8 tropical dep… -1         25    1012
##  6 Amy    1975     6    28     6  32.4 -78.7 tropical dep… -1         25    1012
##  7 Amy    1975     6    28    12  33.3 -78   tropical dep… -1         25    1011
##  8 Amy    1975     6    28    18  34   -77   tropical dep… -1         30    1006
##  9 Amy    1975     6    29     0  34.4 -75.8 tropical sto… 0          35    1004
## 10 Amy    1975     6    29     6  34   -74.8 tropical sto… 0          40    1002
## # … with 76 more rows, 2 more variables: tropicalstorm_force_diameter <int>,
## #   hurricane_force_diameter <int>, and abbreviated variable names ¹​category,
## #   ²​pressure
…
