11 Summary | Tidy Hurricanes
…
Think about the columns that we need to select to find the number of unique
storms per year. We obviously need year, but this column alone it’s not enough
because for any given storm we have multiple records with the same year.
Therefore, we also need column name.

For illustration purposes, we are going to build the data manipulation pipeline
step by step. As you get more comfortable with "dplyr" and other functions,
you won’t have the need to disect every single command.

A first step is to select() variables year and name:

select(storms, year, name)

## # A tibble: 11,859 × 2
##     year name 
##    <dbl> <chr>
##  1  1975 Amy  
##  2  1975 Amy  
##  3  1975 Amy  
##  4  1975 Amy  
##  5  1975 Amy  
##  6  1975 Amy  
##  7  1975 Amy  
##  8  1975 Amy  
##  9  1975 Amy  
## 10  1975 Amy  
## # … with 11,849 more rows

Next, we need to group_by() year. At first glance, the previous output and
the output below seem identical. But notice the tiny difference: the output
below has a second line of text with some relevant information:
# Groups:   year [41], telling us that the values are grouped by year.

group_by(select(storms, year, name), year)

## # A tibble: 11,859 × 2
## # Groups:   year [46]
##     year name 
##    <dbl> <chr>
##  1  1975 Amy  
##  2  1975 Amy  
##  3  1975 Amy  
##  4  1975 Amy  
##  5  1975 Amy  
##  6  1975 Amy  
##  7  1975 Amy  
##  8  1975 Amy  
##  9  1975 Amy  
## 10  1975 Amy  
## # … with 11,849 more rows

Then, we identify the distinct() values (combination of year-name):

distinct(group_by(select(storms, year, name), year))

## # A tibble: 512 × 2
## # Groups:   year [46]
##     year name    
##    <dbl> <chr>   
##  1  1975 Amy     
##  2  1975 Caroline
##  3  1975 Doris   
##  4  1976 Belle   
##  5  1976 Gloria  
##  6  1977 Anita   
##  7  1977 Clara   
##  8  1977 Evelyn  
##  9  1978 Amelia  
## 10  1978 Bess    
## # … with 502 more rows

For convenience purposes, let’s assign this table into its own object,
which we can call storms_year_name

storms_year_name <- distinct(group_by(select(storms, year, name), year))

Finally, we need to count() how many storms are in each year:

count(storms_year_name, year)

## # A tibble: 46 × 2
## # Groups:   year [46]
##     year     n
##    <dbl> <int>
##  1  1975     3
##  2  1976     2
##  3  1977     3
##  4  1978     4
##  5  1979     7
##  6  1980     8
##  7  1981     5
##  8  1982     5
##  9  1983     4
## 10  1984    10
## # … with 36 more rows

All the previous commands can be assembled together with various embedded lines
of code:

storms_per_year <- count(
  distinct(
    group_by(
      select(storms, year, name), 
      year)
    )
  )

storms_per_year

## # A tibble: 46 × 2
## # Groups:   year [46]
##     year     n
##    <dbl> <int>
##  1  1975     3
##  2  1976     2
##  3  1977     3
##  4  1978     4
##  5  1979     7
##  6  1980     8
##  7  1981     5
##  8  1982     5
##  9  1983     4
## 10  1984    10
## # … with 36 more rows
…
By looking at the chart, there are some fairly tall bars. Although it’s hard
to see exactly which years have a considerably large number of storms,
eyeballing things out it seems that around 1995, 2003, 2005, and 2010 there are
20 or more storms. We can find the actual answer by using arrange(),
specifying the counts to be shown in descending order—with desc():

arrange(storms_per_year, desc(n))

## # A tibble: 46 × 2
## # Groups:   year [46]
##     year     n
##    <dbl> <int>
##  1  2020    26
##  2  1995    21
##  3  2005    21
##  4  2003    20
##  5  2010    20
##  6  2019    18
##  7  2001    17
##  8  2012    17
##  9  2000    16
## 10  2007    16
## # … with 36 more rows
…
