13 Visualizing Number of Systems | Tidy Hurricanes
…
            Tidy Hurricanes

13 Visualizing Number of Systems

We ended the preceding chapter with the following command that allows us to
get the number of tropical systems in each year from 1975 to 2020:

system_counts_per_year <- storms %>% 
  count(year, name) %>% 
  count(year)

system_counts_per_year

## # A tibble: 46 × 2
##     year     n
##    <dbl> <int>
##  1  1975     3
##  2  1976     2
##  3  1977     3
##  4  1978     4
##  5  1979     7
##  6  1980     8
##  7  1981     5
##  8  1982     5
##  9  1983     4
## 10  1984    10
## # … with 36 more rows
…
Looking at the chart, there are some fairly tall bars. Although it’s hard
to see exactly which years have a considerably large number of tropical systems,
eyeballing things out it seems that around 1995, 2005, and 2020 there are
20 or more storms. We can find the actual answer by using arrange(),
specifying the counts to be shown in descending order—with desc():

arrange(system_counts_per_year, desc(n))

## # A tibble: 46 × 2
##     year     n
##    <dbl> <int>
##  1  2020    26
##  2  1995    21
##  3  2005    21
##  4  2003    20
##  5  2010    20
##  6  2019    18
##  7  2001    17
##  8  2012    17
##  9  2000    16
## 10  2007    16
## # … with 36 more rows
…
